{
  "__comment": "When modifying this file, you need to reset or reinstall all current client installations",
  "auth": [{
      "type": "oauth2",
      "config": {
        "oauth2.clients": [

          { "clientID": "c2dc745a-6658-40a6-b57c-dd3fd2c59017", "redirectURL": "https://cfsam-sam-poc-com-deloitte-opticrew.cfapps.eu10.hana.ondemand.com", "grantType": "authorization_code" }
        ],
        "oauth2.tokenEndpoint": "https://cfsam-sam-poc-com-deloitte-opticrew.cfapps.eu10.hana.ondemand.com/oauth2/api/v1/token",
        "oauth2.authorizationEndpoint": "https://cfsam-sam-poc-com-deloitte-opticrew.cfapps.eu10.hana.ondemand.com/oauth2/api/v1/authorize"
      },
      "requireOtp": false
    }],
  "ServiceUrl" : "https://cfsam-sam-poc-com-deloitte-opticrew.cfapps.eu10.hana.ondemand.com/",
  "appID": "com.deloitte.opticrew"
}